^C:\Users\semen\source\repos\HelloWorld\HelloWorld.vcxproj
C:\Users\semen\source\repos\HelloWorld\Release\HelloWorld.ipdb
C:\Users\semen\source\repos\HelloWorld\Release\HelloWorld.iobj
^C:\Users\semen\source\repos\HelloWorld\HelloWorld.vcxproj
C:\Users\semen\source\repos\HelloWorld\Release\HelloWorld.ipdb
C:\Users\semen\source\repos\HelloWorld\Release\HelloWorld.iobj
^C:\Users\semen\source\repos\HelloWorld\HelloWorld.vcxproj
C:\Users\semen\source\repos\HelloWorld\Release\HelloWorld.ipdb
C:\Users\semen\source\repos\HelloWorld\Release\HelloWorld.iobj
